<?xml version="1.0" encoding="iso-8859-1"?>
<!-- Generator: Adobe Illustrator 15.0.0, SVG Export Plug-In . SVG Version: 6.00 Build 0)  -->
<!DOCTYPE svg PUBLIC "-//W3C//DTD SVG 1.1//EN" "http://www.w3.org/Graphics/SVG/1.1/DTD/svg11.dtd">
<svg version="1.1" id="Layer_1" xmlns="http://www.w3.org/2000/svg" xmlns:xlink="http://www.w3.org/1999/xlink" x="0px" y="0px"
	 width="20px" height="20px" viewBox="0 0 20 20" style="enable-background:new 0 0 20 20;" xml:space="preserve">
<g>
	<path style="fill:#FFFFFF;" d="M6.902,11.771c-0.423,0.425-1.101,0.5-1.843,0.494c-0.015,0-0.03-0.001-0.045-0.001
		c-0.056,0-0.111,0-0.169,0l0.016,0.014c-0.527,0.028-1.052,0.166-1.536,0.446c-0.285,0.165-0.549,0.37-0.785,0.606
		c-0.714,0.718-1.193,1.708-1.285,2.726c-0.009,0.109,0.04,0.211,0.132,0.269c0.089,0.056,0.206,0.06,0.294,0.006l2.554-1.471
		c0,0,0.006-0.006,0.052-0.021c0.145-0.036,0.469-0.124,0.942,0.337c0.141,0.14,0.294,0.336,0.447,0.604
		c0.604,1.086,0.282,1.438,0.15,1.599c-0.058,0.059-0.086,0.062-0.083,0.068L3.18,18.926c-0.093,0.055-0.148,0.151-0.141,0.261
		c0.003,0.106,0.064,0.2,0.163,0.245c1.235,0.57,2.775,0.535,3.922-0.125c0.266-0.148,0.502-0.335,0.711-0.542
		c0.653-0.654,1.002-1.544,1.024-2.469l0.016,0.014c-0.019-0.825,0.058-1.578,0.521-2.041l0.436-0.437l-2.494-2.496L6.902,11.771z"
		/>
	<path style="fill:#FFFFFF;" d="M8.764,6.352C8.714,6.303,8.65,6.277,8.58,6.277c-0.07-0.001-0.135,0.026-0.185,0.075l-2.201,2.2
		c-0.102,0.101-0.102,0.269,0,0.369l10.855,10.845c0.102,0.104,0.268,0.101,0.368,0l2.202-2.199c0.048-0.05,0.073-0.115,0.073-0.184
		c0-0.07-0.025-0.138-0.078-0.186L8.764,6.352z"/>
	<path style="fill:#FFFFFF;" d="M19.867,4.761c-0.089-0.058-0.202-0.06-0.298-0.006l-2.55,1.473c0,0-0.008,0.006-0.054,0.018
		c-0.143,0.038-0.469,0.124-0.941-0.333c-0.141-0.143-0.294-0.338-0.45-0.605c-0.601-1.088-0.282-1.438-0.147-1.598
		c0.056-0.061,0.086-0.063,0.083-0.067l2.563-1.48c0.094-0.053,0.147-0.154,0.143-0.259c-0.003-0.108-0.068-0.204-0.163-0.246
		c-1.239-0.57-2.774-0.534-3.925,0.123c-0.265,0.154-0.499,0.336-0.709,0.542c-0.651,0.654-1.001,1.542-1.025,2.469l-0.014-0.013
		c0.02,0.828-0.059,1.578-0.521,2.043L11.18,7.497l2.494,2.493l0.678-0.677c0.423-0.425,1.1-0.498,1.842-0.493
		c0.016,0.001,0.032,0.001,0.043,0.001c0.059,0.002,0.114,0.002,0.173,0.002l-0.017-0.017c0.527-0.027,1.053-0.162,1.537-0.44
		c0.285-0.168,0.549-0.373,0.785-0.609c0.713-0.716,1.19-1.707,1.284-2.727C20.008,4.922,19.956,4.819,19.867,4.761z"/>
	<path style="fill:#FFFFFF;" d="M3.394,9.646c0.153,0,0.307-0.062,0.417-0.172l5.504-5.506c0.111-0.11,0.171-0.26,0.171-0.417
		S9.426,3.244,9.315,3.136L6.51,0.33c-0.11-0.108-0.261-0.173-0.414-0.173c-0.157,0-0.307,0.064-0.417,0.173L0.172,5.837
		C0.065,5.945,0,6.096,0,6.251s0.065,0.308,0.172,0.416l2.806,2.807C3.087,9.584,3.238,9.646,3.394,9.646z"/>
</g>
</svg>
