<?xml version="1.0" encoding="iso-8859-1"?>
<!-- Generator: Adobe Illustrator 15.0.0, SVG Export Plug-In . SVG Version: 6.00 Build 0)  -->
<!DOCTYPE svg PUBLIC "-//W3C//DTD SVG 1.1//EN" "http://www.w3.org/Graphics/SVG/1.1/DTD/svg11.dtd">
<svg version="1.1" id="Layer_1" xmlns="http://www.w3.org/2000/svg" xmlns:xlink="http://www.w3.org/1999/xlink" x="0px" y="0px"
	 width="20px" height="20px" viewBox="0 0 20 20" style="enable-background:new 0 0 20 20;" xml:space="preserve">
<g>
	<path style="fill:#FFFFFF;" d="M4.126,20h0.597c0.218-0.037,0.325-0.217,0.325-0.217v-1.015h-0.88H3.923H2.726v1.015
		c0,0,0.11,0.18,0.327,0.217h0.909H4.126z"/>
	<polygon style="fill:#FFFFFF;" points="11.316,18.551 17.99,18.551 17.99,16.13 11.123,16.13 10.32,16.13 2.01,16.13 2.01,18.551 
		10.32,18.551 	"/>
	<path style="fill:#FFFFFF;" d="M15.873,20h-0.594c-0.219-0.037-0.326-0.217-0.326-0.217v-1.015h0.881h0.246h1.195v1.015
		c0,0-0.107,0.18-0.328,0.217h-0.906H15.873z"/>
	<path style="fill:#FFFFFF;" d="M15.477,0h-4.668h-0.598H4.523c0,0-2.247,0.111-2.499,1.559v14.348h8.368h0.514h7.07V1.559
		C17.725,0.111,15.477,0,15.477,0z M5.066,0.835h5.169h0.933h3.766v1.956h-3.74h-0.958H5.066V0.835L5.066,0.835z M3.401,15.107
		c-0.4,0-0.727-0.323-0.727-0.724s0.326-0.725,0.727-0.725c0.399,0,0.724,0.324,0.724,0.725S3.801,15.107,3.401,15.107z
		 M5.212,15.107c-0.4,0-0.724-0.323-0.724-0.724s0.323-0.725,0.724-0.725c0.399,0,0.725,0.324,0.725,0.725
		S5.613,15.107,5.212,15.107z M11.951,10.627c0.283-0.537,0.957-0.916,1.74-0.916c0.781,0,1.453,0.379,1.736,0.916H11.951z
		 M14.789,15.107c-0.4,0-0.723-0.323-0.723-0.724s0.322-0.725,0.723-0.725s0.727,0.324,0.727,0.725S15.189,15.107,14.789,15.107z
		 M16.6,15.107c-0.4,0-0.725-0.323-0.725-0.724s0.324-0.725,0.725-0.725s0.725,0.324,0.725,0.725S17,15.107,16.6,15.107z
		 M17.334,10.218c0,0.226-0.18,0.409-0.408,0.409h-1.035c-0.293-0.779-1.164-1.352-2.199-1.352c-1.039,0-1.908,0.57-2.205,1.352
		h-8.41c-0.226,0-0.41-0.184-0.41-0.409V4.131c0-0.226,0.183-0.409,0.41-0.409h13.852c0.227,0,0.406,0.184,0.406,0.409V10.218
		L17.334,10.218z"/>
</g>
</svg>
