<?xml version="1.0" encoding="UTF-8" standalone="no"?>
<!-- Generator: Adobe Illustrator 17.0.0, SVG Export Plug-In . SVG Version: 6.00 Build 0)  -->

<svg
   xmlns:dc="http://purl.org/dc/elements/1.1/"
   xmlns:cc="http://creativecommons.org/ns#"
   xmlns:rdf="http://www.w3.org/1999/02/22-rdf-syntax-ns#"
   xmlns:svg="http://www.w3.org/2000/svg"
   xmlns="http://www.w3.org/2000/svg"
   xmlns:sodipodi="http://sodipodi.sourceforge.net/DTD/sodipodi-0.dtd"
   xmlns:inkscape="http://www.inkscape.org/namespaces/inkscape"
   version="1.1"
   id="Layer_1"
   x="0px"
   y="0px"
   width="25.004px"
   height="25.001px"
   viewBox="0 0 25.004 25.001"
   enable-background="new 0 0 25.004 25.001"
   xml:space="preserve"
   inkscape:version="0.48.4 r9939"
   sodipodi:docname="search (1).svg"><metadata
   id="metadata8038"><rdf:RDF><cc:Work
       rdf:about=""><dc:format>image/svg+xml</dc:format><dc:type
         rdf:resource="http://purl.org/dc/dcmitype/StillImage" /><dc:title></dc:title></cc:Work></rdf:RDF></metadata><defs
   id="defs8036" /><sodipodi:namedview
   pagecolor="#ffffff"
   bordercolor="#666666"
   borderopacity="1"
   objecttolerance="10"
   gridtolerance="10"
   guidetolerance="10"
   inkscape:pageopacity="0"
   inkscape:pageshadow="2"
   inkscape:window-width="1920"
   inkscape:window-height="1138"
   id="namedview8034"
   showgrid="false"
   inkscape:zoom="9.4396226"
   inkscape:cx="-4.0240845"
   inkscape:cy="12.5005"
   inkscape:window-x="1912"
   inkscape:window-y="-8"
   inkscape:window-maximized="1"
   inkscape:current-layer="Layer_1" />
<path
   d="m 24.393098,21.445569 -5.981043,-5.983042 c -0.06799,-0.06899 -0.145977,-0.122981 -0.218965,-0.179972 1.009838,-1.549752 1.600744,-3.397456 1.600744,-5.3861384 -0.001,-5.4651257 -4.429292,-9.89441712 -9.8964172,-9.89441712 -5.4651258,0 -9.89541705,4.42929142 -9.89541705,9.89341722 0,5.4661263 4.43029125,9.8944173 9.89541705,9.8944173 1.9886822,0 3.8363862,-0.592905 5.3891382,-1.600744 0.05699,0.07499 0.109982,0.148977 0.176971,0.217966 l 5.982044,5.983042 c 0.408934,0.405935 0.940849,0.608903 1.473764,0.608903 0.532914,0 1.065829,-0.202968 1.473764,-0.608903 0.81187,-0.813869 0.81187,-2.132658 0,-2.944529 z M 9.8974168,16.665334 c -3.732403,0 -6.7709169,-3.037514 -6.7709169,-6.7699173 0,-3.7324029 3.0395137,-6.7689171 6.7709169,-6.7689171 3.7324032,0 6.7699172,3.0365142 6.7699172,6.7689171 0,3.7324033 -3.038514,6.7699173 -6.7699172,6.7699173 z"
   id="path8032"
   style="fill:#979da3;fill-opacity:1"
   inkscape:connector-curvature="0" />
</svg>