<?xml version="1.0" encoding="iso-8859-1"?>
<!-- Generator: Adobe Illustrator 15.0.0, SVG Export Plug-In . SVG Version: 6.00 Build 0)  -->
<!DOCTYPE svg PUBLIC "-//W3C//DTD SVG 1.1//EN" "http://www.w3.org/Graphics/SVG/1.1/DTD/svg11.dtd">
<svg version="1.1" id="Layer_1" xmlns="http://www.w3.org/2000/svg" xmlns:xlink="http://www.w3.org/1999/xlink" x="0px" y="0px"
	 width="20px" height="20px" viewBox="0 0 20 20" style="enable-background:new 0 0 20 20;" xml:space="preserve">
<g>
	<g>
		<path style="fill:#60656A;" d="M10,18.367c0.55,0.016,1.028-0.22,1.353-0.373c0.338-0.156,0.761-0.309,1.201-0.309
			c0.433,0,0.93,0.174,1.197,0.309c0.544,0.279,0.724,0.371,1.211,0.371c0.58,0.034,1.086-0.212,1.429-0.371
			c0.338-0.156,0.763-0.309,1.2-0.309c0.436,0,0.931,0.174,1.198,0.309c0.544,0.279,0.727,0.371,1.211,0.371v0.665v0.766
			c-0.484,0-0.667-0.09-1.211-0.364c-0.268-0.137-0.763-0.313-1.198-0.313c-0.438,0-0.862,0.152-1.2,0.313
			c-0.346,0.154-0.849,0.404-1.429,0.364c-0.487,0-0.667-0.09-1.211-0.364c-0.268-0.137-0.765-0.313-1.197-0.313
			c-0.44,0-0.863,0.152-1.201,0.313c-0.325,0.15-0.804,0.383-1.353,0.373c-0.552,0.01-1.028-0.224-1.354-0.373
			c-0.337-0.16-0.761-0.313-1.198-0.313c-0.434,0-0.933,0.176-1.2,0.313c-0.543,0.273-0.727,0.364-1.21,0.364
			c-0.583,0.04-1.087-0.21-1.427-0.364c-0.342-0.16-0.766-0.313-1.2-0.313c-0.436,0-0.934,0.176-1.199,0.313
			C0.666,19.705,0.485,19.796,0,19.796V19.03v-0.665c0.485,0,0.666-0.092,1.21-0.371c0.265-0.135,0.763-0.309,1.199-0.309
			c0.434,0,0.858,0.153,1.2,0.309c0.34,0.159,0.844,0.405,1.427,0.371c0.483,0,0.667-0.092,1.21-0.371
			c0.267-0.135,0.765-0.309,1.2-0.309c0.438,0,0.861,0.153,1.198,0.309C8.972,18.147,9.448,18.383,10,18.367L10,18.367z"/>
		<path style="fill:#60656A;" d="M16.098,15.702c0.106-0.045,0.204-0.092,0.293-0.133c0.338-0.158,0.763-0.31,1.2-0.31
			c0.436,0,0.933,0.172,1.198,0.31c0.544,0.278,0.727,0.368,1.211,0.368v0.666v0.77c-0.484,0-0.667-0.09-1.211-0.37
			c-0.268-0.136-0.763-0.31-1.198-0.31c-0.438,0-0.862,0.15-1.2,0.31c-0.343,0.16-0.849,0.405-1.429,0.37
			c-0.487,0-0.667-0.09-1.211-0.37c-0.266-0.136-0.765-0.31-1.197-0.31c-0.44,0-0.86,0.15-1.201,0.31
			c-0.325,0.151-0.803,0.386-1.352,0.374c-0.553,0.012-1.029-0.223-1.354-0.374c-0.339-0.159-0.763-0.31-1.199-0.31
			c-0.435,0-0.934,0.174-1.201,0.31c-0.543,0.28-0.725,0.37-1.209,0.37c-0.583,0.035-1.088-0.21-1.427-0.37
			c-0.341-0.159-0.767-0.31-1.201-0.31c-0.436,0-0.934,0.174-1.198,0.31c-0.545,0.28-0.726,0.37-1.21,0.37v-0.77v-0.666
			c0.484,0,0.665-0.09,1.21-0.368c0.264-0.138,0.763-0.31,1.198-0.31c0.434,0,0.86,0.151,1.201,0.31
			c0.085,0.041,0.184,0.088,0.292,0.133c-0.297-1.066-1.572-5.326-1.572-5.424c0-0.011,0.217-0.553,1.415-1.014L4.49,4.109h1.825
			l0,0C6.346,4.107,6.41,4.093,6.424,4.03l1.024-3.835h1.778h1.546h1.777l1.024,3.836c0.016,0.063,0.077,0.076,0.111,0.078l0,0
			h1.822l0.746,5.156c1.2,0.46,1.641,1.002,1.641,1.014C17.895,10.376,16.395,14.635,16.098,15.702
			c0.106-0.045,0.207-0.092,0.29-0.133c0.343-0.158,0.768-0.31,1.203-0.31s0.933,0.173,1.198,0.31 M10.357,6.81
			c1.959-0.018,4.422,1.901,4.422,1.901l-0.524-3.345H12.39l-0.354-2.441c-0.062-0.344-0.225-0.514-0.503-0.514H9.998l0,0H10l0,0
			H8.466c-0.281,0-0.443,0.17-0.504,0.514L7.606,5.366H5.742L5.218,8.711c0,0,2.238-1.96,4.385-1.901H10.357L10.357,6.81z"/>
	</g>
</g>
</svg>
