<?xml version="1.0" encoding="iso-8859-1"?>
<!-- Generator: Adobe Illustrator 15.0.0, SVG Export Plug-In . SVG Version: 6.00 Build 0)  -->
<!DOCTYPE svg PUBLIC "-//W3C//DTD SVG 1.1//EN" "http://www.w3.org/Graphics/SVG/1.1/DTD/svg11.dtd">
<svg version="1.1" id="Layer_1" xmlns="http://www.w3.org/2000/svg" xmlns:xlink="http://www.w3.org/1999/xlink" x="0px" y="0px"
	 width="20px" height="20px" viewBox="0 0 20 20" style="enable-background:new 0 0 20 20;" xml:space="preserve">
<path style="fill:#019BFF;" d="M7.384,0h5.231c2.136,0,3.865,1.729,3.865,3.863v7.729c0,1.65-1.033,3.057-2.486,3.614L17.245,20
	h-1.843l-0.826-1.22H5.423L4.598,20H2.755l3.253-4.794c-1.454-0.558-2.488-1.964-2.488-3.614V3.863C3.521,1.729,5.25,0,7.384,0
	 M10.001,17.583h3.767l-0.576-0.853H6.81l-0.576,0.853H10.001z M5.999,3.556c-0.426,0-0.772,0.347-0.772,0.773v3.402
	c0,0.427,0.347,0.773,0.772,0.773h8.002c0.426,0,0.773-0.349,0.773-0.773V4.329c0-0.427-0.348-0.773-0.773-0.773H5.999z
	 M8.513,1.332c-0.172,0-0.312,0.14-0.312,0.31v0.772c0,0.172,0.14,0.31,0.312,0.31h2.977c0.172,0,0.312-0.138,0.312-0.31V1.642
	c0-0.171-0.14-0.31-0.312-0.31H8.513z M14.002,13.061c0.522,0,0.947-0.424,0.947-0.948s-0.425-0.946-0.947-0.946
	c-0.523,0-0.948,0.422-0.948,0.946S13.479,13.061,14.002,13.061 M5.999,13.061c0.522,0,0.946-0.424,0.946-0.948
	s-0.424-0.946-0.946-0.946s-0.947,0.422-0.947,0.946C5.053,12.637,5.477,13.061,5.999,13.061"/>
</svg>
