<?xml version="1.0" encoding="iso-8859-1"?>
<!-- Generator: Adobe Illustrator 15.0.0, SVG Export Plug-In . SVG Version: 6.00 Build 0)  -->
<!DOCTYPE svg PUBLIC "-//W3C//DTD SVG 1.1//EN" "http://www.w3.org/Graphics/SVG/1.1/DTD/svg11.dtd">
<svg version="1.1" id="Layer_1" xmlns="http://www.w3.org/2000/svg" xmlns:xlink="http://www.w3.org/1999/xlink" x="0px" y="0px"
	 width="20px" height="20px" viewBox="0 0 20 20" style="enable-background:new 0 0 20 20;" xml:space="preserve">
<path style="fill:#019BFF;" d="M11.01,1.2c0.836,0,1.513,0.677,1.513,1.513s-0.677,1.512-1.513,1.512S9.497,3.549,9.497,2.713
	S10.174,1.2,11.01,1.2z M15.146,9.223l-2.181-0.965l-1.39-2.855c-0.035-0.098-0.081-0.191-0.134-0.279l-0.033-0.067
	c-0.084-0.171-0.213-0.296-0.357-0.366c-0.167-0.128-0.36-0.22-0.575-0.268c-0.127-0.027-0.253-0.037-0.376-0.031
	C9.99,4.387,9.873,4.402,9.754,4.445C9.562,4.5,9.384,4.591,9.224,4.713L5.967,6.437c-0.059,0.03-0.113,0.067-0.161,0.105
	C5.645,6.628,5.524,6.78,5.488,6.973l-0.51,2.695c-0.063,0.338,0.159,0.664,0.497,0.728c0.336,0.063,0.662-0.159,0.725-0.496
	l0.478-2.53l1.749-0.926L7.659,9.939c-0.025,0.105-0.033,0.206-0.029,0.303l-0.585,3.645c-0.012,0.018-0.027,0.033-0.04,0.052
	l-2.296,3.54c-0.286,0.442-0.232,0.989,0.123,1.219c0.357,0.23,0.877,0.059,1.164-0.384l2.298-3.54
	c0.071-0.111,0.123-0.229,0.152-0.348c0.027-0.063,0.048-0.129,0.061-0.198l0.433-2.706c0.052,0.015,0.106,0.027,0.161,0.04
	c0.18,0.041,0.338,0.103,0.479,0.166l2.399,2.862l0.739,3.532c0.094,0.448,0.508,0.742,0.921,0.655
	c0.416-0.088,0.675-0.521,0.581-0.971l-0.752-3.587c-0.029-0.142-0.094-0.266-0.178-0.368c-0.027-0.05-0.061-0.098-0.098-0.144
	l-2.501-2.985l0.684-3.094l0.593,1.223c0.019,0.037,0.04,0.07,0.061,0.104c0.04,0.167,0.148,0.313,0.31,0.385l2.306,1.02
	c0.289,0.128,0.638-0.022,0.775-0.337C15.556,9.709,15.435,9.351,15.146,9.223z"/>
</svg>
