<?xml version="1.0" encoding="utf-8"?>
<!-- Generator: Adobe Illustrator 15.0.0, SVG Export Plug-In . SVG Version: 6.00 Build 0)  -->
<!DOCTYPE svg PUBLIC "-//W3C//DTD SVG 1.1//EN" "http://www.w3.org/Graphics/SVG/1.1/DTD/svg11.dtd">
<svg version="1.1" id="Layer_1" xmlns="http://www.w3.org/2000/svg" xmlns:xlink="http://www.w3.org/1999/xlink" x="0px" y="0px"
	 width="143px" height="20px" viewBox="0 0 143 20" enable-background="new 0 0 143 20" xml:space="preserve">
<g>
	<path fill="#019BFF" d="M0.357,18.465c0,0,21.032-2.548,42.371-2.548c21.796,0,42.962,2.548,42.962,2.548v0.898
		c0,0-20.146-2.414-42.959-2.414c-22.537,0-42.374,2.414-42.374,2.414V18.465L0.357,18.465z M7.433,13.671H5.708V7.262
		c0-0.853-0.076-1.156-0.303-1.46C5.215,5.556,4.874,5.423,4.437,5.423c-0.683,0-1.707,0.53-2.352,1.213v7.035H1.208
		c-0.553,0-0.848-0.414-0.848-1.063V6.599c0-1.138-0.095-1.574-0.36-2.257l1.65-0.455c0.227,0.455,0.322,0.872,0.322,1.46
		c0.55-0.455,0.834-0.701,1.232-0.929c0.55-0.322,1.175-0.475,1.764-0.475c1.005,0,1.896,0.531,2.237,1.347
		c0.151,0.342,0.228,0.759,0.228,1.194V13.671L7.433,13.671z M76.158,13.671h-1.725V7.262c0-0.853-0.076-1.156-0.304-1.46
		c-0.189-0.246-0.531-0.379-0.967-0.379c-0.684,0-1.707,0.53-2.352,1.213v7.035h-0.877c-0.553,0-0.848-0.414-0.848-1.063V6.599
		c0-1.138-0.095-1.574-0.36-2.257l1.65-0.455c0.227,0.455,0.322,0.872,0.322,1.46c0.55-0.455,0.834-0.701,1.233-0.929
		c0.549-0.322,1.175-0.475,1.764-0.475c1.004,0,1.896,0.531,2.237,1.347c0.151,0.342,0.227,0.759,0.227,1.194V13.671L76.158,13.671z
		 M87.41,12.184c0-0.105,0.086-0.191,0.191-0.191h1.297c0.104,0,0.19,0.086,0.19,0.191v1.486h-1.487
		c-0.105,0-0.191-0.085-0.191-0.19V12.184L87.41,12.184z M123.979,12.184c0-0.105,0.085-0.191,0.19-0.191h1.297
		c0.105,0,0.19,0.086,0.19,0.191v1.486h-1.487c-0.105,0-0.19-0.085-0.19-0.19V12.184L123.979,12.184z M16.592,9.291h-5.784v0.228
		c0,0.815,0.114,1.44,0.398,1.896c0.493,0.759,1.27,1.118,2.18,1.118c0.891,0,1.65-0.303,2.333-0.91l0.664,1.043
		c-0.929,0.816-2.048,1.214-3.281,1.214c-2.636,0-4.248-1.915-4.248-5.025c0-1.649,0.322-2.711,1.138-3.678
		c0.758-0.892,1.688-1.309,2.863-1.309c1.062,0,1.915,0.341,2.579,1.023c0.834,0.854,1.138,1.915,1.157,4.096V9.291L16.592,9.291z
		 M14.771,8.001c0-0.91-0.208-1.668-0.588-2.143c-0.303-0.379-0.758-0.663-1.365-0.663c-1.327,0-1.991,1.081-1.991,2.806H14.771
		L14.771,8.001z M29.699,4.171l-2.655,9.576h-1.688L23.972,8.57c-0.171-0.664-0.588-2.237-0.588-2.237h-0.057
		c0,0-0.379,1.611-0.512,2.124l-1.422,5.29h-1.669l-2.598-9.5l1.763-0.284l1.213,5.328c0.208,0.948,0.493,2.332,0.493,2.332h0.057
		c0,0,0.208-1.347,0.436-2.161l1.441-5.291h1.802l1.327,5.139c0.266,1.024,0.531,2.219,0.531,2.313h0.076
		c0-0.095,0.303-1.631,0.436-2.256l1.175-5.196H29.699L29.699,4.171z M38.146,12.421l-0.606,1.25h-6.485v-1.25l4.987-6.979h-4.608
		V4.171h6.504v1.309l-4.759,6.941H38.146L38.146,12.421z M46.201,9.291h-5.783v0.228c0,0.815,0.114,1.44,0.398,1.896
		c0.493,0.759,1.27,1.118,2.18,1.118c0.891,0,1.65-0.303,2.333-0.91l0.664,1.043c-0.929,0.816-2.048,1.214-3.28,1.214
		c-2.636,0-4.248-1.915-4.248-5.025c0-1.649,0.322-2.711,1.138-3.678c0.759-0.892,1.688-1.309,2.863-1.309
		c1.062,0,1.915,0.341,2.579,1.023c0.834,0.854,1.138,1.915,1.157,4.096V9.291L46.201,9.291z M44.381,8.001
		c0-0.91-0.208-1.668-0.588-2.143c-0.303-0.379-0.758-0.663-1.365-0.663c-1.327,0-1.991,1.081-1.991,2.806H44.381L44.381,8.001z
		 M55.155,12.894l-0.891,1.176c-0.588-0.228-1.043-0.701-1.27-1.364c-0.247,0.303-1.043,1.25-2.693,1.25
		c-1.896,0-3.072-0.966-3.072-2.787c0-2.199,1.764-3.375,4.835-3.375c0.228,0,0.417,0,0.664,0.019V7.187
		c0-1.119-0.152-1.878-1.479-1.878c-1.005,0-2.143,0.493-2.92,1.081l-0.796-1.251c0.929-0.531,2.142-1.252,3.982-1.252
		c1.384,0,2.389,0.512,2.749,1.517c0.152,0.418,0.19,0.74,0.19,1.669c0,0.683-0.076,2.143-0.076,3.527
		C54.378,11.908,54.416,12.438,55.155,12.894L55.155,12.894z M52.69,9.007c-0.265-0.02-0.417-0.038-0.569-0.038
		c-1.309,0-2.104,0.246-2.484,0.683c-0.36,0.417-0.493,0.759-0.493,1.385c0,1.043,0.531,1.649,1.498,1.649
		c0.796,0,1.555-0.494,1.991-1.252L52.69,9.007L52.69,9.007z M59.327,13.652c-0.36,0.151-0.664,0.209-1.081,0.209
		c-0.683,0-1.119-0.209-1.479-0.721c-0.285-0.398-0.36-0.72-0.36-1.649V3.747c0-1.347-0.057-1.991-0.209-2.731l1.821-0.379
		c0.171,0.626,0.171,1.536,0.171,2.712v7.688c0,1.004,0.057,1.231,0.247,1.402c0.113,0.133,0.379,0.19,0.587,0.133L59.327,13.652
		L59.327,13.652z M67.981,12.894l-0.891,1.176c-0.588-0.228-1.043-0.701-1.271-1.364c-0.247,0.303-1.042,1.25-2.692,1.25
		c-1.896,0-3.072-0.966-3.072-2.787c0-2.199,1.764-3.375,4.835-3.375c0.228,0,0.417,0,0.664,0.019V7.187
		c0-1.119-0.152-1.878-1.479-1.878c-1.005,0-2.143,0.493-2.92,1.081l-0.796-1.251c0.929-0.531,2.143-1.252,3.982-1.252
		c1.384,0,2.389,0.512,2.75,1.517c0.152,0.418,0.189,0.74,0.189,1.669c0,0.683-0.076,2.143-0.076,3.527
		C67.204,11.908,67.242,12.438,67.981,12.894L67.981,12.894z M65.516,9.007c-0.265-0.02-0.417-0.038-0.568-0.038
		c-1.309,0-2.104,0.246-2.484,0.683c-0.361,0.417-0.493,0.759-0.493,1.385c0,1.043,0.531,1.649,1.498,1.649
		c0.796,0,1.555-0.494,1.991-1.252L65.516,9.007L65.516,9.007z M85.787,13.671h-1.668c-0.096-0.284-0.114-0.416-0.171-0.891
		c-0.664,0.702-1.441,1.043-2.446,1.043c-2.427,0-3.849-1.82-3.849-4.816c0-2.048,0.701-3.622,1.991-4.456
		c0.587-0.38,1.176-0.55,1.857-0.55c0.91,0,1.669,0.322,2.313,1.1c0-0.266-0.038-1.716-0.038-2.36V0.771l1.745,0.285v9.43
		C85.522,12.021,85.579,13.084,85.787,13.671L85.787,13.671z M83.759,11.264V6.295c-0.493-0.588-1.119-0.892-2.01-0.892
		c-0.721,0-1.29,0.36-1.649,0.968c-0.361,0.625-0.493,1.384-0.493,2.616c0,1.84,0.228,2.352,0.739,2.883
		c0.322,0.341,0.758,0.492,1.403,0.492C82.754,12.362,83.437,11.832,83.759,11.264L83.759,11.264z M99.512,4.948
		c-0.531,0.418-0.986,0.569-1.574,0.569c-0.284,0-0.359-0.019-0.814-0.151c0.493,0.625,0.683,1.137,0.683,1.744
		c0,1.365-0.93,2.938-3.414,2.938c-0.587,0.19-1.497,0.626-1.497,1.044c0,0.284,0.228,0.475,0.682,0.475h1.461
		c2.427,0,3.432,1.138,3.432,2.615c0,2.048-1.688,3.072-4.001,3.072c-2.654,0-4.171-0.929-4.171-2.503
		c0-0.398,0.075-0.683,0.17-0.968l1.707-0.094c-0.076,0.151-0.171,0.455-0.171,0.72c0,0.986,0.815,1.518,2.294,1.518
		c1.556,0,2.333-0.625,2.333-1.63c0-0.911-0.74-1.441-2.617-1.441c-0.663,0-1.422-0.058-1.782-0.096
		c-0.834-0.095-1.327-0.569-1.327-1.27c0-0.892,0.777-1.271,1.857-1.669c-1.459-0.437-2.237-1.423-2.237-2.731
		c0-1.914,1.461-3.185,3.641-3.185c0.513,0,0.91,0.037,1.479,0.208c0.493,0.151,1.005,0.304,1.422,0.304
		c0.569,0,1.043-0.189,1.555-0.55L99.512,4.948L99.512,4.948z M95.871,7.054c0-1.214-0.55-1.782-1.745-1.782
		c-1.118,0-1.725,0.606-1.725,1.819c0,1.176,0.625,1.764,1.744,1.764C95.283,8.854,95.871,8.229,95.871,7.054L95.871,7.054z
		 M107.646,9.007c0,3.015-1.611,4.931-4.134,4.931c-2.541,0-4.114-1.935-4.114-5.025c0-3.072,1.573-5.006,4.076-5.006
		C106.28,3.906,107.646,6.144,107.646,9.007L107.646,9.007z M105.692,9.082c0-2.938-0.854-3.83-2.219-3.83
		c-1.517,0-2.143,1.081-2.143,3.471c0,2.9,0.739,3.867,2.219,3.867C104.877,12.59,105.692,11.567,105.692,9.082L105.692,9.082z
		 M116.377,4.171l-3.471,9.576h-1.631l-3.394-9.538l1.801-0.284l1.878,5.745c0.208,0.645,0.417,1.403,0.568,2.049
		c0.151-0.569,0.342-1.309,0.606-2.087l1.802-5.461H116.377L116.377,4.171z M122.304,4.171l-0.474,1.232h-1.877v5.727
		c0,1.176,0.284,1.536,1.232,1.536c0.322,0,0.588-0.057,0.891-0.189l0.209,1.063c-0.53,0.265-1.1,0.398-1.726,0.398
		c-0.625,0-1.309-0.19-1.612-0.475c-0.397-0.359-0.701-0.55-0.701-1.935V5.403h-1.138l0.398-1.232h0.739
		c0-0.739,0.02-1.706,0.114-2.427l1.802-0.417c-0.076,0.683-0.171,1.877-0.171,2.844H122.304L122.304,4.171z M143,12.421
		l-0.606,1.25h-6.484v-1.25l4.986-6.979h-4.607V4.171h6.504v1.309l-4.76,6.941H143L143,12.421z M134.381,13.671h-1.726V7.262
		c0-0.853-0.076-1.156-0.304-1.46c-0.189-0.246-0.53-0.379-0.967-0.379c-0.683,0-1.707,0.53-2.352,1.213v7.035h-0.877
		c-0.553,0-0.849-0.414-0.849-1.063V6.599c0-1.138-0.095-1.574-0.359-2.257l1.649-0.455c0.228,0.455,0.322,0.872,0.322,1.46
		c0.55-0.455,0.834-0.701,1.232-0.929c0.55-0.322,1.176-0.475,1.764-0.475c1.005,0,1.896,0.531,2.237,1.347
		c0.152,0.342,0.228,0.759,0.228,1.194V13.671L134.381,13.671z"/>
</g>
</svg>
